…
Error : cannot get the original model predictors
Got expected error from try(plotmo(rpart.sqrtnum))
> 
> #-----------------------------------------------------------------------------------
> # Test fix for github bug report https://github.com/tidymodels/parsnip/issues/341
> # (fixed Sep 2020)
> 
> cat("===m750a first example===\n")
===m750a first example===
> set.seed(2020)
> m750a <- m4_monthly %>%
+     filter(id == "M750") %>%
+     select(-id)
> print(m750a) # a tibble
# A tibble: 306 x 2
   date       value
   <date>     <dbl>
 1 1990-01-01  6370
 2 1990-02-01  6430
 3 1990-03-01  6520
 4 1990-04-01  6580
 5 1990-05-01  6620
 6 1990-06-01  6690
 7 1990-07-01  6000
 8 1990-08-01  5450
 9 1990-09-01  6480
10 1990-10-01  6820
# ... with 296 more rows
…
stats::predict(earth.object, NULL, type="response")
stats::fitted(object=earth.object)
got model response from model.frame(log(value) ~ as.numeric(date) + month...,
                                    data=call$data, na.action="na.fail")
> par(org.par)
> 
> cat("===m750a second example===\n")
===m750a second example===
> set.seed(2020)
> m750b <- m4_monthly %>%
+     filter(id == "M750") %>%
+     select(-id) %>%
+     rename(date2 = date)
> print(m750b) # tibble
# A tibble: 306 x 2
   date2      value
   <date>     <dbl>
 1 1990-01-01  6370
 2 1990-02-01  6430
 3 1990-03-01  6520
 4 1990-04-01  6580
 5 1990-05-01  6620
 6 1990-06-01  6690
 7 1990-07-01  6000
 8 1990-08-01  5450
 9 1990-09-01  6480
10 1990-10-01  6820
# ... with 296 more rows
> set.seed(2020)
> splits_b <- initial_time_split(m750b, prop = 0.9)
> set.seed(2020)
> model_m750b <- mars(mode = "regression") %>%
+     set_engine("earth") %>%
+     fit(log(value) ~ as.numeric(date2) + month(date2, label = TRUE), data = training(splits_b))
> # new data that only contains the feature "date" as a predictor
> future_data <- m750b %>% future_frame(date2, .length_out = "3 years")
> print(future_data) # a tibble with a single column of class "Date"
# A tibble: 36 x 1
   date2     
   <date>    
 1 2015-07-01
 2 2015-08-01
 3 2015-09-01
 4 2015-10-01
 5 2015-11-01
 6 2015-12-01
 7 2016-01-01
 8 2016-02-01
 9 2016-03-01
10 2016-04-01
# ... with 26 more rows
…
